{
    "bussinessId": "9899683318",
    "contactId": "6207012958",
    "transaction": {
      "amount": 1000,
      "createdDate": "2021-10-13T08:05:55.947Z",
      "id": " ",
      "isCredit": true,
      "payeeId": "9899683318",
      "payerId": "6207012958",
      "type": "for havels products",
      "updatedDate": "2021-10-13T08:05:55.947Z"
    }
  }