{
    "bussinessId": "9899683318",
    "contactId": "6207012958",
    "paymentMode": {
      "accountNumber": "123456789",
      "accountType": "current",
      "createdDate": "2021-10-13T08:20:58.855Z",
      "id": " ",
      "ifsc": "IOB12335",
      "name": "Razum",
      "paymentModeType": "BANKACCOUNT",
      "updatedDate": "2021-10-13T08:20:58.855Z"
    }
  }